0 17 17 11 7 11 7 13 5 6 8 6 18 12 10 16 16 11 18 7 18 15 9 16 5 19 17 9 3 4 0 3 1 17 6 0 0 6 13 6 12 13 12 2 18 14 11 14 17 9 14 16 16 3 4 14 15 2 15 18 18 15 13 19 
4 19 11 4 5 5 2 9 10 6 12 8 0 3 15 10 4 1 6 13 4 10 19 11 4 14 9 2 1 14 13 5 14 17 9 19 2 12 1 4 18 13 13 11 16 0 1 12 1 19 5 17 1 4 9 18 10 10 12 11 5 6 16 19 
15 18 10 17 2 11 13 12 16 18 3 4 18 16 17 19 7 2 9 9 19 18 7 9 0 19 13 5 17 1 16 12 19 19 1 13 2 7 6 19 5 1 3 4 18 0 15 17 15 4 6 6 2 5 15 3 17 8 0 6 10 17 11 1 
16 4 7 10 11 13 9 17 14 5 1 4 17 16 14 4 1 0 10 15 18 6 10 15 6 11 13 8 0 4 2 16 9 9 18 0 2 8 17 8 5 10 5 2 7 19 7 0 11 17 15 9 15 6 16 14 17 10 2 17 14 4 5 3 
13 3 16 7 3 13 16 8 4 13 3 3 12 2 3 15 11 10 5 7 16 1 1 5 3 15 14 18 12 11 13 5 7 9 5 2 15 13 3 11 6 6 14 10 0 9 5 11 19 2 10 8 4 11 5 19 19 12 17 11 3 3 8 2 
4 13 5 11 6 0 2 4 18 8 14 18 9 12 9 1 14 0 1 10 3 6 10 14 18 19 5 14 2 14 8 19 7 13 10 6 5 5 10 3 5 17 1 7 9 3 8 3 15 1 14 10 7 4 5 18 3 2 4 18 16 12 9 16 
18 19 14 3 16 4 7 14 1 0 13 2 15 1 6 10 2 0 13 1 16 18 19 11 0 15 9 9 8 18 17 6 10 11 9 18 7 16 4 1 9 17 3 4 10 9 15 4 1 0 6 9 18 17 1 10 13 2 11 1 13 8 7 3 
11 8 13 19 17 18 0 6 7 15 10 18 17 17 2 10 17 8 0 7 18 1 10 11 15 1 4 8 10 3 3 13 11 17 12 8 7 4 6 14 12 17 12 9 6 15 19 16 15 19 3 13 12 13 16 8 15 12 16 17 15 0 2 19 
9 15 19 8 11 6 2 3 15 7 4 13 14 4 9 9 15 5 15 0 18 3 8 5 8 16 14 15 8 17 14 17 4 6 17 7 12 0 3 19 7 7 12 1 3 2 2 11 7 9 11 17 13 11 15 13 19 1 8 8 18 3 17 14 
1 15 14 13 7 17 4 14 16 16 7 12 10 1 3 9 11 6 19 16 9 14 9 8 15 17 16 6 12 6 12 13 1 6 18 8 15 14 14 12 11 13 16 13 14 11 15 17 17 14 5 6 0 14 14 15 4 3 13 8 9 6 14 2 
12 12 2 8 7 16 12 10 1 8 15 7 19 10 5 16 16 10 14 16 17 0 4 13 3 17 1 4 3 15 6 8 0 8 16 19 16 0 1 9 8 16 17 19 19 2 7 15 4 1 4 13 1 8 6 17 17 0 1 13 7 0 1 19 
8 9 18 17 9 11 6 9 8 3 8 19 17 7 14 14 8 10 7 1 10 6 10 8 6 4 13 5 4 14 5 4 15 15 1 16 7 8 5 7 3 5 6 13 12 12 7 12 3 14 5 5 0 8 5 18 12 18 16 16 12 1 0 19 
8 14 15 7 14 12 14 17 17 0 10 1 5 9 5 0 4 3 5 16 3 11 15 15 9 11 3 14 4 15 13 4 9 9 12 3 13 18 13 11 11 15 4 16 5 2 8 9 17 13 17 0 16 4 7 6 7 10 12 3 5 5 8 15 
6 12 10 0 10 15 3 13 11 19 1 16 13 9 17 10 3 6 2 11 11 9 17 18 19 9 2 17 7 10 4 5 14 14 17 16 10 0 10 13 12 11 1 5 13 10 8 16 16 10 19 7 0 17 18 11 18 0 8 17 2 4 3 16 
19 0 12 1 13 14 6 17 18 7 2 11 17 10 19 5 13 18 13 5 7 11 16 18 3 17 15 5 1 10 13 12 3 17 13 8 12 11 5 2 18 7 13 7 10 4 13 15 2 18 0 2 1 16 0 4 5 15 1 7 18 14 19 1 
11 5 9 15 16 14 17 7 13 10 14 15 6 19 10 9 17 10 11 18 19 11 14 4 18 15 11 16 9 3 17 13 0 18 8 8 12 6 7 18 8 2 13 15 1 4 4 11 6 7 1 5 10 16 10 8 3 13 17 13 8 14 6 0 
5 6 9 17 12 16 7 1 10 1 16 4 17 12 15 3 19 16 9 9 4 11 9 8 16 6 13 5 13 11 5 18 17 6 7 10 3 15 3 5 8 19 9 5 11 16 0 2 13 1 3 9 4 4 9 1 11 2 6 16 5 3 14 3 
10 13 5 5 8 8 10 8 19 0 5 2 16 18 4 1 19 19 3 4 3 12 17 14 7 15 2 12 18 8 7 8 2 12 13 2 12 16 11 11 8 16 13 16 6 9 18 6 8 13 2 12 5 19 18 12 14 1 17 4 9 4 13 3 
17 18 6 1 6 17 13 14 5 18 11 4 8 1 10 8 14 4 0 11 3 11 16 9 4 13 13 5 17 18 9 6 9 15 8 15 4 13 2 1 11 13 5 11 6 7 12 0 11 4 3 6 15 19 7 11 12 13 17 2 11 6 8 12 
13 8 8 9 1 2 10 5 15 8 8 1 15 0 13 19 17 8 17 12 8 5 4 12 18 13 14 1 19 15 14 4 3 14 13 5 16 3 2 11 3 10 4 11 3 9 10 0 17 7 4 17 12 0 10 2 13 4 4 4 11 18 8 15 
12 1 12 8 17 14 11 0 16 7 11 19 8 13 11 5 13 16 15 17 16 5 0 2 1 4 6 13 14 7 0 18 8 12 6 17 18 9 10 14 8 13 6 16 7 17 13 12 5 8 9 2 5 9 16 7 5 2 12 11 1 12 9 10 
4 7 19 2 16 9 8 16 3 14 12 2 4 18 14 9 6 3 3 4 5 19 11 2 14 15 14 15 7 3 17 3 11 17 17 19 6 5 16 1 12 8 3 16 18 9 5 5 5 9 1 10 0 4 4 14 19 18 10 18 2 7 13 13 
4 10 12 3 7 0 4 11 9 0 7 7 1 5 4 6 6 17 8 6 1 13 1 0 11 3 18 5 10 3 10 7 13 15 10 13 15 6 4 16 18 4 4 0 1 0 18 7 18 7 13 11 12 6 12 15 9 2 1 0 6 11 19 11 
6 9 16 2 7 1 18 6 17 14 6 18 7 16 17 17 15 2 8 7 9 12 3 10 15 16 10 13 19 1 16 6 10 13 0 18 6 10 16 3 17 14 13 16 10 10 5 6 12 13 13 13 6 8 4 13 4 6 18 4 8 14 2 10 
19 14 0 5 16 16 0 13 10 13 1 1 15 6 19 0 0 12 13 18 13 9 3 9 16 13 5 16 19 19 6 19 13 7 16 10 3 17 15 6 2 9 19 10 15 18 10 7 2 15 17 15 17 12 5 13 5 2 1 17 2 7 8 15 
6 4 17 10 13 5 8 8 14 7 18 9 5 0 9 7 7 6 3 4 19 0 9 16 2 10 5 16 10 13 12 16 10 1 18 15 6 6 3 0 13 13 2 10 13 11 18 13 17 13 17 8 5 7 17 19 9 2 16 19 16 0 16 18 
1 14 13 8 13 9 0 6 2 14 9 8 17 7 1 7 12 18 15 9 17 12 8 7 7 4 18 15 16 14 13 18 1 18 18 14 7 10 12 10 5 1 18 2 0 19 9 4 9 17 13 7 1 14 6 8 18 4 15 7 19 8 5 12 
19 15 6 6 5 10 16 2 12 14 17 4 5 18 9 15 15 14 14 9 8 0 9 19 4 5 6 15 5 3 7 4 18 5 11 3 16 19 18 0 6 15 16 11 13 17 18 1 12 12 10 12 12 11 11 9 8 9 4 14 12 4 10 10 
1 1 6 17 13 4 9 19 11 6 10 4 3 9 17 7 13 19 0 6 11 3 15 19 13 11 5 17 15 16 8 17 9 6 6 2 2 8 1 13 14 4 9 9 5 7 9 18 6 9 16 9 4 11 1 17 15 6 15 2 14 15 11 4 
1 18 18 15 18 0 8 12 16 17 13 13 4 2 11 3 3 8 12 8 11 13 17 18 12 12 1 6 19 12 10 12 2 9 7 0 1 15 4 9 5 18 2 1 12 5 4 16 5 9 16 17 14 13 7 6 18 8 13 9 1 15 2 15 
16 9 16 9 17 12 18 2 2 12 3 15 18 0 3 3 9 11 12 3 4 0 2 14 8 7 4 1 14 6 9 3 7 17 12 16 9 3 18 12 15 14 19 13 6 14 9 15 5 1 10 9 1 4 16 2 11 0 15 18 18 4 1 5 
1 13 14 3 8 4 7 4 18 6 9 4 0 18 11 5 0 14 6 13 18 2 7 2 14 15 0 12 19 1 10 13 6 4 8 15 0 15 19 19 13 0 15 5 19 19 10 11 5 8 16 3 3 4 5 9 19 17 2 10 18 4 15 5 
0 15 0 0 10 11 11 15 11 19 0 2 10 2 13 15 11 2 18 6 18 16 15 17 13 9 19 12 5 7 9 5 2 9 18 5 12 9 0 3 0 1 18 10 3 3 5 6 5 16 4 3 12 0 12 17 1 12 9 7 11 10 4 5 
11 14 10 3 4 3 19 16 16 17 7 19 0 12 18 6 0 2 9 12 14 2 10 8 6 11 15 9 14 11 14 5 6 17 9 2 12 8 18 8 17 17 19 17 2 17 15 2 12 17 7 18 11 17 6 9 0 13 18 14 5 4 0 3 
1 1 17 5 1 15 13 18 5 13 7 7 2 3 9 6 0 8 5 3 5 11 12 18 5 10 4 2 6 16 5 0 17 2 5 18 9 19 8 6 4 16 13 18 11 15 5 11 3 10 14 1 13 18 11 18 0 15 12 6 12 9 6 1 
11 12 12 13 3 0 19 7 8 5 5 19 12 2 10 7 4 16 0 18 6 11 8 6 19 1 13 11 10 19 4 14 3 16 19 6 9 10 5 17 15 3 17 19 5 19 7 10 8 7 8 14 11 8 1 10 9 14 13 12 5 17 18 9 
6 17 7 15 7 13 12 15 16 1 6 13 1 13 3 1 13 3 15 4 12 16 14 1 2 7 5 8 16 3 9 2 0 8 9 0 1 14 7 9 15 13 3 8 19 18 9 4 2 5 8 14 13 14 15 16 13 13 16 1 16 17 4 9 
5 13 1 19 19 8 8 15 13 3 3 12 2 5 16 4 10 16 10 15 10 17 11 15 10 19 17 7 16 13 8 2 18 9 1 18 17 1 13 10 17 8 15 11 5 11 15 15 8 17 3 10 14 14 18 5 6 15 4 2 0 12 16 18 
13 9 16 2 3 1 12 0 2 19 11 7 3 18 15 3 15 18 13 9 4 3 6 10 18 10 5 10 14 1 9 7 3 5 9 6 19 14 6 1 13 9 8 16 7 3 19 2 1 5 3 6 8 10 8 19 12 13 9 7 7 18 14 10 
16 4 16 7 10 14 8 3 3 16 12 10 12 11 4 13 8 19 11 17 9 0 8 2 5 17 1 12 8 15 2 16 11 10 3 1 16 3 17 19 11 9 1 3 12 17 9 13 17 0 10 18 12 10 12 18 19 13 2 19 1 17 15 12 
7 10 6 4 5 15 15 17 16 17 12 0 6 1 13 3 14 15 2 18 5 14 8 5 8 11 4 9 0 12 13 19 14 11 3 12 18 11 9 14 0 13 15 6 15 8 10 1 4 4 11 1 18 0 6 18 3 3 19 3 7 5 2 1 
16 18 13 15 9 14 1 1 8 16 7 15 17 9 8 1 13 19 14 4 19 1 14 14 16 14 17 3 11 0 4 7 10 10 14 19 16 8 12 4 4 19 11 1 1 19 14 14 11 1 10 2 2 5 17 18 11 14 1 2 6 17 1 16 
7 8 7 16 16 19 0 12 11 4 6 12 15 12 18 6 13 9 9 15 6 6 5 9 12 18 11 19 16 12 15 15 12 15 11 8 14 4 1 5 0 7 9 15 19 8 14 13 9 3 0 15 1 18 4 13 16 7 4 4 11 0 12 4 
15 15 4 1 19 5 19 11 4 8 7 16 8 13 1 17 8 1 4 9 19 0 14 8 7 19 12 11 11 4 15 18 0 11 19 11 9 18 3 13 19 2 1 7 7 2 17 15 16 1 4 7 2 10 15 1 9 0 12 0 16 19 18 8 
11 18 0 0 8 15 5 19 9 19 7 16 1 4 11 9 17 7 17 11 17 4 13 19 4 17 19 1 9 18 9 12 8 1 4 8 8 9 8 17 8 7 5 2 3 8 11 12 7 8 4 17 5 9 16 9 18 15 2 7 5 4 19 5 
17 3 14 6 5 14 15 5 13 13 7 8 1 11 12 1 11 16 18 16 17 14 6 16 1 0 15 7 16 7 12 14 2 18 12 19 4 19 5 9 12 4 9 6 15 2 7 7 10 17 3 8 11 1 16 12 14 3 11 10 10 16 16 5 
14 8 4 11 0 9 0 12 6 10 10 1 4 9 0 14 6 4 2 9 17 10 14 11 14 5 14 16 1 10 1 8 11 6 19 11 15 11 15 1 13 18 15 17 19 15 12 6 11 6 7 1 9 1 12 3 19 6 19 12 9 1 0 0 
19 11 3 6 3 10 0 16 0 15 6 0 2 10 6 14 8 5 15 17 19 19 0 18 18 12 10 19 5 3 11 4 14 14 10 17 16 2 6 17 17 12 17 12 14 15 18 2 0 5 0 11 4 12 9 14 4 12 13 1 15 4 17 9 
10 0 19 7 2 5 16 12 9 13 4 3 8 2 5 0 7 5 12 3 10 13 10 14 5 3 8 12 0 5 2 10 17 13 9 0 10 5 12 19 18 8 14 18 10 11 11 9 17 3 4 19 8 6 5 14 10 13 6 2 11 0 12 8 
5 2 8 15 7 12 14 18 0 0 16 2 12 7 3 1 2 0 0 11 6 5 17 8 11 15 10 2 16 15 10 13 17 11 9 16 15 15 14 8 16 3 2 8 2 18 9 5 18 1 8 16 6 5 17 17 0 19 11 8 14 2 2 3 
5 11 12 12 6 6 0 2 1 15 2 4 13 3 9 3 4 17 19 11 14 8 0 14 8 12 3 14 6 17 10 3 8 2 15 6 0 8 1 2 3 3 6 16 7 7 19 11 16 10 14 10 11 15 4 11 19 19 5 5 16 15 8 16 
17 15 15 18 3 16 0 6 11 18 14 18 5 13 2 1 16 8 3 7 15 7 18 14 19 15 11 15 11 19 4 0 7 19 10 10 15 2 17 6 0 11 17 17 17 11 10 5 19 13 12 15 13 2 1 12 17 13 19 0 4 3 1 11 
2 11 2 9 14 11 8 6 14 17 16 3 8 6 8 19 12 0 6 5 14 8 17 12 13 8 12 17 12 5 1 6 17 3 8 3 6 8 1 12 5 17 16 13 16 4 4 8 17 11 5 11 19 14 15 12 2 0 1 6 5 2 5 14 
17 13 9 15 1 11 8 18 0 4 11 8 0 7 8 9 18 13 13 9 19 8 13 14 0 15 0 6 9 5 0 7 10 2 2 3 5 10 1 17 6 4 6 19 12 14 8 10 0 13 0 11 14 13 5 14 0 6 0 10 3 13 9 14 
15 11 17 12 14 19 9 12 3 15 11 7 2 12 18 14 5 10 5 19 15 3 14 16 1 6 18 4 11 7 10 18 10 0 10 16 11 0 1 6 7 4 14 1 16 12 7 14 14 5 5 9 8 11 17 9 18 7 5 1 6 16 0 9 
16 2 5 19 14 6 5 2 11 19 15 19 3 3 13 17 8 11 19 16 2 8 17 12 16 2 14 2 10 6 11 18 8 9 17 3 7 3 17 18 2 12 10 6 7 15 15 15 6 14 3 9 3 12 1 11 15 7 13 17 13 17 16 2 
6 13 17 13 16 14 4 11 18 6 9 6 1 16 13 8 11 9 9 6 1 10 17 8 18 2 6 11 11 14 5 17 7 2 3 16 8 19 19 19 5 8 17 6 4 10 6 7 11 15 5 5 18 14 5 8 17 11 11 8 5 17 18 5 
11 13 1 12 4 0 11 9 0 8 7 16 10 6 16 2 1 1 19 11 8 4 19 5 8 11 5 5 0 15 10 11 0 3 3 4 15 14 5 7 2 5 4 13 3 12 7 16 5 6 8 13 10 7 10 18 18 16 4 18 3 6 2 16 
10 17 12 17 12 10 5 6 7 1 11 10 13 18 6 18 16 14 4 19 14 14 17 4 10 13 15 6 12 17 2 14 14 6 11 18 16 8 17 3 9 8 13 14 19 12 5 15 18 9 6 12 3 4 9 6 9 4 12 13 13 6 7 19 
12 11 18 1 19 7 4 1 15 10 7 6 14 12 14 12 13 0 17 17 16 6 3 6 2 7 11 15 5 19 6 9 10 4 2 1 3 7 14 19 9 2 5 15 14 11 7 8 12 4 17 8 2 12 6 4 11 18 11 16 9 18 17 11 
14 0 12 18 19 19 9 0 1 6 15 15 18 2 15 10 19 4 10 13 16 17 10 7 7 1 15 16 19 13 7 6 5 11 4 4 10 13 4 3 19 19 19 9 13 6 19 4 11 10 10 19 19 0 7 6 1 2 14 13 7 13 19 12 
16 15 8 7 8 4 10 19 15 1 9 9 0 0 5 3 2 15 2 1 15 1 19 9 16 13 2 3 6 13 8 3 8 16 2 16 13 4 7 8 18 16 17 10 9 15 13 11 10 15 13 18 9 12 7 5 18 1 0 4 14 8 19 14 
17 1 2 10 18 9 18 16 18 8 6 7 3 11 18 5 18 3 15 7 8 14 12 6 15 13 2 1 13 2 7 10 15 9 12 13 19 3 1 9 11 19 16 6 10 6 3 9 2 19 16 2 5 1 8 13 14 2 6 7 16 14 10 12 
3 2 17 2 5 11 11 8 10 19 6 1 18 10 10 12 1 18 14 6 19 14 19 13 16 18 13 5 12 15 17 15 9 6 10 7 17 1 15 8 13 14 1 3 4 11 15 17 9 9 3 1 3 15 14 11 13 19 16 17 14 5 12 16 
