19 46 54 59 2 7 52 48 92 56
98 67 85 87 84 76 89 34 50
58 20 37 17 51 19 76 96 100 38
57 42 51 67 62 58 70 92 16 12
49 24 74 8 53 86 56 34 42 91
54 38 63 53 33 14 79 10 74 97
65 98 55 91 79 37 84 24 53 33
93 21 50 64 81 26 27 65 89 37
17 90 12 41 38 70 37 21 16 56
50 95 7 9 45 15 51 54 57 17
